Trick,Hits to Attempts Ratio,Times Landed,Num of Attempts
FS 180,1,3,3
FS Noseslide,1,2,2
Fakie Ollie,1,2,2
Ollie,0.875,7,8
Nollie,0.866666666666667,13,15
FS 5050,0.666666666666667,2,3
Switch Ollie,0.666666666666667,2,3
FS Pop Shuv It,0.583333333333333,7,12
Nose Manual (3 sidewalk blocks),0.545454545454545,6,11
Fakie FS Pop Shuv It,0.5,1,2
Kickflip,0.166666666666667,1,6
BS Boardslide,0.111111111111111,1,9
FS Boardslide,0,0,1
Switch FS Pop Shuv It,0,0,4
Heelflip,0,0,3
360 Pop Shuv It,0,0,4
